  _____ ___ ___   __  __      _                 _
 |_   _|_ _( _ ) |  \/  |    / \   ___ __ _  __| | ___ _ __ ___  _   _
   | |  | |/ _ \/\ |\/| |   / _ \ / __/ _` |/ _` |/ _ \ '_ ` _ \| | | |
   | |  | | (_>  < |  | |  / ___ \ (_| (_| | (_| |  __/ | | | | | |_| |
   |_| |___\___/\/_|  |_| /_/   \_\___\__,_|\__,_|\___|_| |_| |_|\__, |
  ____             _               _  __                         |___/
 |  _ \  ___   ___| | _____ _ __  | |/ /   _ _ __ ___
 | | | |/ _ \ / __| |/ / _ \ '__| | ' / | | | '__/ __|
 | |_| | (_) | (__|   <  __/ |    | . \ |_| | |  \__ \
 |____/ \___/ \___|_|\_\___|_|    |_|\_\__,_|_|  |___/

